\relax 
\@writefile{toc}{\contentsline {section}{\numberline {1}Exercise 1}{1}{}\protected@file@percent }
\@writefile{toc}{\contentsline {section}{\numberline {2}Exercise 2}{2}{}\protected@file@percent }
\@writefile{toc}{\contentsline {section}{\numberline {3}Exercise 3}{2}{}\protected@file@percent }
\@writefile{toc}{\contentsline {section}{\numberline {4}Exercise 4}{3}{}\protected@file@percent }
\@writefile{toc}{\contentsline {section}{\numberline {5}Exercise 5}{4}{}\protected@file@percent }
\@writefile{toc}{\contentsline {section}{\numberline {6}Exercise 6}{4}{}\protected@file@percent }
\@writefile{toc}{\contentsline {section}{\numberline {7}Exercise 7}{4}{}\protected@file@percent }
\@writefile{toc}{\contentsline {section}{\numberline {8}Exercise 8}{5}{}\protected@file@percent }
\@writefile{toc}{\contentsline {section}{\numberline {9}Exercise 9}{5}{}\protected@file@percent }
\@writefile{toc}{\contentsline {section}{\numberline {10}Exercise 10}{6}{}\protected@file@percent }
\gdef \@abspage@last{6}
