%!PS-Adobe-3.0 EPSF-3.0
%%Creator: (MATLAB, The Mathworks, Inc. Version 9.11.0.1809720 \(R2021b\) Update 1. Operating System: Linux)
%%Title: ./exercise1Bb.eps
%%CreationDate: 2021-12-02T22:43:12
%%Pages: (atend)
%%BoundingBox:    34    21   389   304
%%LanguageLevel: 3
%%EndComments
%%BeginProlog
%%BeginResource: procset (Apache XML Graphics Std ProcSet) 1.2 0
%%Version: 1.2 0
%%Copyright: (Copyright 2001-2003,2010 The Apache Software Foundation. License terms: http://www.apache.org/licenses/LICENSE-2.0)
/bd{bind def}bind def
/ld{load def}bd
/GR/grestore ld
/GS/gsave ld
/RM/rmoveto ld
/C/curveto ld
/t/show ld
/L/lineto ld
/ML/setmiterlimit ld
/CT/concat ld
/f/fill ld
/N/newpath ld
/S/stroke ld
/CC/setcmykcolor ld
/A/ashow ld
/cp/closepath ld
/RC/setrgbcolor ld
/LJ/setlinejoin ld
/GC/setgray ld
/LW/setlinewidth ld
/M/moveto ld
/re {4 2 roll M
1 index 0 rlineto
0 exch rlineto
neg 0 rlineto
cp } bd
/_ctm matrix def
/_tm matrix def
/BT { _ctm currentmatrix pop matrix _tm copy pop 0 0 moveto } bd
/ET { _ctm setmatrix } bd
/iTm { _ctm setmatrix _tm concat } bd
/Tm { _tm astore pop iTm 0 0 moveto } bd
/ux 0.0 def
/uy 0.0 def
/F {
  /Tp exch def
  /Tf exch def
  Tf findfont Tp scalefont setfont
  /cf Tf def  /cs Tp def
} bd
/ULS {currentpoint /uy exch def /ux exch def} bd
/ULE {
  /Tcx currentpoint pop def
  gsave
  newpath
  cf findfont cs scalefont dup
  /FontMatrix get 0 get /Ts exch def /FontInfo get dup
  /UnderlinePosition get Ts mul /To exch def
  /UnderlineThickness get Ts mul /Tt exch def
  ux uy To add moveto  Tcx uy To add lineto
  Tt setlinewidth stroke
  grestore
} bd
/OLE {
  /Tcx currentpoint pop def
  gsave
  newpath
  cf findfont cs scalefont dup
  /FontMatrix get 0 get /Ts exch def /FontInfo get dup
  /UnderlinePosition get Ts mul /To exch def
  /UnderlineThickness get Ts mul /Tt exch def
  ux uy To add cs add moveto Tcx uy To add cs add lineto
  Tt setlinewidth stroke
  grestore
} bd
/SOE {
  /Tcx currentpoint pop def
  gsave
  newpath
  cf findfont cs scalefont dup
  /FontMatrix get 0 get /Ts exch def /FontInfo get dup
  /UnderlinePosition get Ts mul /To exch def
  /UnderlineThickness get Ts mul /Tt exch def
  ux uy To add cs 10 mul 26 idiv add moveto Tcx uy To add cs 10 mul 26 idiv add lineto
  Tt setlinewidth stroke
  grestore
} bd
/QT {
/Y22 exch store
/X22 exch store
/Y21 exch store
/X21 exch store
currentpoint
/Y21 load 2 mul add 3 div exch
/X21 load 2 mul add 3 div exch
/X21 load 2 mul /X22 load add 3 div
/Y21 load 2 mul /Y22 load add 3 div
/X22 load /Y22 load curveto
} bd
/SSPD {
dup length /d exch dict def
{
/v exch def
/k exch def
currentpagedevice k known {
/cpdv currentpagedevice k get def
v cpdv ne {
/upd false def
/nullv v type /nulltype eq def
/nullcpdv cpdv type /nulltype eq def
nullv nullcpdv or
{
/upd true def
} {
/sametype v type cpdv type eq def
sametype {
v type /arraytype eq {
/vlen v length def
/cpdvlen cpdv length def
vlen cpdvlen eq {
0 1 vlen 1 sub {
/i exch def
/obj v i get def
/cpdobj cpdv i get def
obj cpdobj ne {
/upd true def
exit
} if
} for
} {
/upd true def
} ifelse
} {
v type /dicttype eq {
v {
/dv exch def
/dk exch def
/cpddv cpdv dk get def
dv cpddv ne {
/upd true def
exit
} if
} forall
} {
/upd true def
} ifelse
} ifelse
} if
} ifelse
upd true eq {
d k v put
} if
} if
} if
} forall
d length 0 gt {
d setpagedevice
} if
} bd
/RE { % /NewFontName [NewEncodingArray] /FontName RE -
  findfont dup length dict begin
  {
    1 index /FID ne
    {def} {pop pop} ifelse
  } forall
  /Encoding exch def
  /FontName 1 index def
  currentdict definefont pop
  end
} bind def
%%EndResource
%%BeginResource: procset (Apache XML Graphics EPS ProcSet) 1.0 0
%%Version: 1.0 0
%%Copyright: (Copyright 2002-2003 The Apache Software Foundation. License terms: http://www.apache.org/licenses/LICENSE-2.0)
/BeginEPSF { %def
/b4_Inc_state save def         % Save state for cleanup
/dict_count countdictstack def % Count objects on dict stack
/op_count count 1 sub def      % Count objects on operand stack
userdict begin                 % Push userdict on dict stack
/showpage { } def              % Redefine showpage, { } = null proc
0 setgray 0 setlinecap         % Prepare graphics state
1 setlinewidth 0 setlinejoin
10 setmiterlimit [ ] 0 setdash newpath
/languagelevel where           % If level not equal to 1 then
{pop languagelevel             % set strokeadjust and
1 ne                           % overprint to their defaults.
{false setstrokeadjust false setoverprint
} if
} if
} bd
/EndEPSF { %def
count op_count sub {pop} repeat            % Clean up stacks
countdictstack dict_count sub {end} repeat
b4_Inc_state restore
} bd
%%EndResource
%FOPBeginFontDict
%%IncludeResource: font Courier-Oblique
%%IncludeResource: font Courier-BoldOblique
%%IncludeResource: font Courier-Bold
%%IncludeResource: font ZapfDingbats
%%IncludeResource: font Symbol
%%IncludeResource: font Helvetica
%%IncludeResource: font Helvetica-Oblique
%%IncludeResource: font Helvetica-Bold
%%IncludeResource: font Helvetica-BoldOblique
%%IncludeResource: font Times-Roman
%%IncludeResource: font Times-Italic
%%IncludeResource: font Times-Bold
%%IncludeResource: font Times-BoldItalic
%%IncludeResource: font Courier
%FOPEndFontDict
%%BeginResource: encoding WinAnsiEncoding
/WinAnsiEncoding [
/.notdef /.notdef /.notdef /.notdef /.notdef
/.notdef /.notdef /.notdef /.notdef /.notdef
/.notdef /.notdef /.notdef /.notdef /.notdef
/.notdef /.notdef /.notdef /.notdef /.notdef
/.notdef /.notdef /.notdef /.notdef /.notdef
/.notdef /.notdef /.notdef /.notdef /.notdef
/.notdef /.notdef /space /exclam /quotedbl
/numbersign /dollar /percent /ampersand /quotesingle
/parenleft /parenright /asterisk /plus /comma
/hyphen /period /slash /zero /one
/two /three /four /five /six
/seven /eight /nine /colon /semicolon
/less /equal /greater /question /at
/A /B /C /D /E
/F /G /H /I /J
/K /L /M /N /O
/P /Q /R /S /T
/U /V /W /X /Y
/Z /bracketleft /backslash /bracketright /asciicircum
/underscore /quoteleft /a /b /c
/d /e /f /g /h
/i /j /k /l /m
/n /o /p /q /r
/s /t /u /v /w
/x /y /z /braceleft /bar
/braceright /asciitilde /bullet /Euro /bullet
/quotesinglbase /florin /quotedblbase /ellipsis /dagger
/daggerdbl /circumflex /perthousand /Scaron /guilsinglleft
/OE /bullet /Zcaron /bullet /bullet
/quoteleft /quoteright /quotedblleft /quotedblright /bullet
/endash /emdash /asciitilde /trademark /scaron
/guilsinglright /oe /bullet /zcaron /Ydieresis
/space /exclamdown /cent /sterling /currency
/yen /brokenbar /section /dieresis /copyright
/ordfeminine /guillemotleft /logicalnot /sfthyphen /registered
/macron /degree /plusminus /twosuperior /threesuperior
/acute /mu /paragraph /middot /cedilla
/onesuperior /ordmasculine /guillemotright /onequarter /onehalf
/threequarters /questiondown /Agrave /Aacute /Acircumflex
/Atilde /Adieresis /Aring /AE /Ccedilla
/Egrave /Eacute /Ecircumflex /Edieresis /Igrave
/Iacute /Icircumflex /Idieresis /Eth /Ntilde
/Ograve /Oacute /Ocircumflex /Otilde /Odieresis
/multiply /Oslash /Ugrave /Uacute /Ucircumflex
/Udieresis /Yacute /Thorn /germandbls /agrave
/aacute /acircumflex /atilde /adieresis /aring
/ae /ccedilla /egrave /eacute /ecircumflex
/edieresis /igrave /iacute /icircumflex /idieresis
/eth /ntilde /ograve /oacute /ocircumflex
/otilde /odieresis /divide /oslash /ugrave
/uacute /ucircumflex /udieresis /yacute /thorn
/ydieresis
] def
%%EndResource
%FOPBeginFontReencode
/Courier-Oblique findfont
dup length dict begin
  {1 index /FID ne {def} {pop pop} ifelse} forall
  /Encoding WinAnsiEncoding def
  currentdict
end
/Courier-Oblique exch definefont pop
/Courier-BoldOblique findfont
dup length dict begin
  {1 index /FID ne {def} {pop pop} ifelse} forall
  /Encoding WinAnsiEncoding def
  currentdict
end
/Courier-BoldOblique exch definefont pop
/Courier-Bold findfont
dup length dict begin
  {1 index /FID ne {def} {pop pop} ifelse} forall
  /Encoding WinAnsiEncoding def
  currentdict
end
/Courier-Bold exch definefont pop
/Helvetica findfont
dup length dict begin
  {1 index /FID ne {def} {pop pop} ifelse} forall
  /Encoding WinAnsiEncoding def
  currentdict
end
/Helvetica exch definefont pop
/Helvetica-Oblique findfont
dup length dict begin
  {1 index /FID ne {def} {pop pop} ifelse} forall
  /Encoding WinAnsiEncoding def
  currentdict
end
/Helvetica-Oblique exch definefont pop
/Helvetica-Bold findfont
dup length dict begin
  {1 index /FID ne {def} {pop pop} ifelse} forall
  /Encoding WinAnsiEncoding def
  currentdict
end
/Helvetica-Bold exch definefont pop
/Helvetica-BoldOblique findfont
dup length dict begin
  {1 index /FID ne {def} {pop pop} ifelse} forall
  /Encoding WinAnsiEncoding def
  currentdict
end
/Helvetica-BoldOblique exch definefont pop
/Times-Roman findfont
dup length dict begin
  {1 index /FID ne {def} {pop pop} ifelse} forall
  /Encoding WinAnsiEncoding def
  currentdict
end
/Times-Roman exch definefont pop
/Times-Italic findfont
dup length dict begin
  {1 index /FID ne {def} {pop pop} ifelse} forall
  /Encoding WinAnsiEncoding def
  currentdict
end
/Times-Italic exch definefont pop
/Times-Bold findfont
dup length dict begin
  {1 index /FID ne {def} {pop pop} ifelse} forall
  /Encoding WinAnsiEncoding def
  currentdict
end
/Times-Bold exch definefont pop
/Times-BoldItalic findfont
dup length dict begin
  {1 index /FID ne {def} {pop pop} ifelse} forall
  /Encoding WinAnsiEncoding def
  currentdict
end
/Times-BoldItalic exch definefont pop
/Courier findfont
dup length dict begin
  {1 index /FID ne {def} {pop pop} ifelse} forall
  /Encoding WinAnsiEncoding def
  currentdict
end
/Courier exch definefont pop
%FOPEndFontReencode
%%EndProlog
%%Page: 1 1
%%PageBoundingBox: 0 0 420 315
%%BeginPageSetup
[1 0 0 -1 0 315] CT
%%EndPageSetup
GS
[0.45 0 0 0.45 0 0] CT
1 GC
N
0 0 933 700 re
f
GR
GS
[0.45 0 0 0.45 0 0] CT
1 GC
N
121 623 M
844 623 L
844 52 L
121 52 L
cp
f
GR
GS
[0.45 0 0 0.45 0 0] CT
0.149 GC
2 setlinecap
1 LJ
1.111 LW
N
121 623 M
844 623 L
S
GR
GS
[0.45 0 0 0.45 0 0] CT
0.149 GC
2 setlinecap
1 LJ
1.111 LW
N
121 52 M
844 52 L
S
GR
GS
[0.45 0 0 0.45 0 0] CT
0.149 GC
2 setlinecap
1 LJ
1.111 LW
N
121 623 M
121 615.77 L
S
GR
GS
[0.45 0 0 0.45 0 0] CT
0.149 GC
2 setlinecap
1 LJ
1.111 LW
N
265.6 623 M
265.6 615.77 L
S
GR
GS
[0.45 0 0 0.45 0 0] CT
0.149 GC
2 setlinecap
1 LJ
1.111 LW
N
410.2 623 M
410.2 615.77 L
S
GR
GS
[0.45 0 0 0.45 0 0] CT
0.149 GC
2 setlinecap
1 LJ
1.111 LW
N
554.8 623 M
554.8 615.77 L
S
GR
GS
[0.45 0 0 0.45 0 0] CT
0.149 GC
2 setlinecap
1 LJ
1.111 LW
N
699.4 623 M
699.4 615.77 L
S
GR
GS
[0.45 0 0 0.45 0 0] CT
0.149 GC
2 setlinecap
1 LJ
1.111 LW
N
844 623 M
844 615.77 L
S
GR
GS
[0.45 0 0 0.45 0 0] CT
0.149 GC
2 setlinecap
1 LJ
1.111 LW
N
121 52 M
121 59.23 L
S
GR
GS
[0.45 0 0 0.45 0 0] CT
0.149 GC
2 setlinecap
1 LJ
1.111 LW
N
265.6 52 M
265.6 59.23 L
S
GR
GS
[0.45 0 0 0.45 0 0] CT
0.149 GC
2 setlinecap
1 LJ
1.111 LW
N
410.2 52 M
410.2 59.23 L
S
GR
GS
[0.45 0 0 0.45 0 0] CT
0.149 GC
2 setlinecap
1 LJ
1.111 LW
N
554.8 52 M
554.8 59.23 L
S
GR
GS
[0.45 0 0 0.45 0 0] CT
0.149 GC
2 setlinecap
1 LJ
1.111 LW
N
699.4 52 M
699.4 59.23 L
S
GR
GS
[0.45 0 0 0.45 0 0] CT
0.149 GC
2 setlinecap
1 LJ
1.111 LW
N
844 52 M
844 59.23 L
S
GR
GS
[0.45 0 0 0.45 54.45 284.35001] CT
0.149 GC
/Helvetica 22.222 F
GS
[1 0 0 1 0 0] CT
-7.5 21 moveto 
1 -1 scale
(0) t 
GR
GR
GS
[0.45 0 0 0.45 119.52 284.35001] CT
0.149 GC
/Helvetica 22.222 F
GS
[1 0 0 1 0 0] CT
-21.5 21 moveto 
1 -1 scale
(100) t 
GR
GR
GS
[0.45 0 0 0.45 184.59001 284.35001] CT
0.149 GC
/Helvetica 22.222 F
GS
[1 0 0 1 0 0] CT
-21.5 21 moveto 
1 -1 scale
(200) t 
GR
GR
GS
[0.45 0 0 0.45 249.66 284.35001] CT
0.149 GC
/Helvetica 22.222 F
GS
[1 0 0 1 0 0] CT
-21.5 21 moveto 
1 -1 scale
(300) t 
GR
GR
GS
[0.45 0 0 0.45 314.73002 284.35001] CT
0.149 GC
/Helvetica 22.222 F
GS
[1 0 0 1 0 0] CT
-21.5 21 moveto 
1 -1 scale
(400) t 
GR
GR
GS
[0.45 0 0 0.45 379.80001 284.35001] CT
0.149 GC
/Helvetica 22.222 F
GS
[1 0 0 1 0 0] CT
-21.5 21 moveto 
1 -1 scale
(500) t 
GR
GR
GS
[0.45 0 0 0.45 0 0] CT
0.149 GC
2 setlinecap
1 LJ
1.111 LW
N
121 623 M
121 52 L
S
GR
GS
[0.45 0 0 0.45 0 0] CT
0.149 GC
2 setlinecap
1 LJ
1.111 LW
N
844 623 M
844 52 L
S
GR
GS
[0.45 0 0 0.45 0 0] CT
0.149 GC
2 setlinecap
1 LJ
1.111 LW
N
121 582.214 M
128.23 582.214 L
S
GR
GS
[0.45 0 0 0.45 0 0] CT
0.149 GC
2 setlinecap
1 LJ
1.111 LW
N
121 500.643 M
128.23 500.643 L
S
GR
GS
[0.45 0 0 0.45 0 0] CT
0.149 GC
2 setlinecap
1 LJ
1.111 LW
N
121 419.071 M
128.23 419.071 L
S
GR
GS
[0.45 0 0 0.45 0 0] CT
0.149 GC
2 setlinecap
1 LJ
1.111 LW
N
121 337.5 M
128.23 337.5 L
S
GR
GS
[0.45 0 0 0.45 0 0] CT
0.149 GC
2 setlinecap
1 LJ
1.111 LW
N
121 255.929 M
128.23 255.929 L
S
GR
GS
[0.45 0 0 0.45 0 0] CT
0.149 GC
2 setlinecap
1 LJ
1.111 LW
N
121 174.357 M
128.23 174.357 L
S
GR
GS
[0.45 0 0 0.45 0 0] CT
0.149 GC
2 setlinecap
1 LJ
1.111 LW
N
121 92.786 M
128.23 92.786 L
S
GR
GS
[0.45 0 0 0.45 0 0] CT
0.149 GC
2 setlinecap
1 LJ
1.111 LW
N
844 582.214 M
836.77 582.214 L
S
GR
GS
[0.45 0 0 0.45 0 0] CT
0.149 GC
2 setlinecap
1 LJ
1.111 LW
N
844 500.643 M
836.77 500.643 L
S
GR
GS
[0.45 0 0 0.45 0 0] CT
0.149 GC
2 setlinecap
1 LJ
1.111 LW
N
844 419.071 M
836.77 419.071 L
S
GR
GS
[0.45 0 0 0.45 0 0] CT
0.149 GC
2 setlinecap
1 LJ
1.111 LW
N
844 337.5 M
836.77 337.5 L
S
GR
GS
[0.45 0 0 0.45 0 0] CT
0.149 GC
2 setlinecap
1 LJ
1.111 LW
N
844 255.929 M
836.77 255.929 L
S
GR
GS
[0.45 0 0 0.45 0 0] CT
0.149 GC
2 setlinecap
1 LJ
1.111 LW
N
844 174.357 M
836.77 174.357 L
S
GR
GS
[0.45 0 0 0.45 0 0] CT
0.149 GC
2 setlinecap
1 LJ
1.111 LW
N
844 92.786 M
836.77 92.786 L
S
GR
GS
[0.45 0 0 0.45 50.45 261.99643] CT
0.149 GC
/Helvetica 22.222 F
GS
[1 0 0 1 0 0] CT
-37 7.5 moveto 
1 -1 scale
(-30) t 
GR
GR
GS
[0.45 0 0 0.45 50.45 225.28928] CT
0.149 GC
/Helvetica 22.222 F
GS
[1 0 0 1 0 0] CT
-37 7.5 moveto 
1 -1 scale
(-20) t 
GR
GR
GS
[0.45 0 0 0.45 50.45 188.58215] CT
0.149 GC
/Helvetica 22.222 F
GS
[1 0 0 1 0 0] CT
-37 7.5 moveto 
1 -1 scale
(-10) t 
GR
GR
GS
[0.45 0 0 0.45 50.45 151.875] CT
0.149 GC
/Helvetica 22.222 F
GS
[1 0 0 1 0 0] CT
-15 7.5 moveto 
1 -1 scale
(0) t 
GR
GR
GS
[0.45 0 0 0.45 50.45 115.16786] CT
0.149 GC
/Helvetica 22.222 F
GS
[1 0 0 1 0 0] CT
-29 7.5 moveto 
1 -1 scale
(10) t 
GR
GR
GS
[0.45 0 0 0.45 50.45 78.46072] CT
0.149 GC
/Helvetica 22.222 F
GS
[1 0 0 1 0 0] CT
-29 7.5 moveto 
1 -1 scale
(20) t 
GR
GR
GS
[0.45 0 0 0.45 50.45 41.75357] CT
0.149 GC
/Helvetica 22.222 F
GS
[1 0 0 1 0 0] CT
-29 7.5 moveto 
1 -1 scale
(30) t 
GR
GR
GS
[0.45 0 0 0.45 217.12521 22.1625] CT
/Helvetica-Bold 24.444 F
GS
[1 0 0 1 0 0] CT
-138.5 -6 moveto 
1 -1 scale
(Figure 2: Sine Wave) t 
GR
GR
GS
[0.45 0 0 0.45 0 0] CT
0 0.447 0.741 RC
1 LJ
1.111 LW
N
122.446 337.5 M
123.892 329.359 L
125.338 313.094 L
126.784 296.926 L
128.23 280.921 L
129.676 265.141 L
131.122 249.652 L
132.568 234.513 L
134.014 219.787 L
135.46 205.531 L
136.906 191.804 L
138.352 178.659 L
139.798 166.149 L
141.244 154.325 L
142.69 143.234 L
144.136 132.919 L
145.582 123.423 L
147.028 114.784 L
148.474 107.035 L
149.92 100.208 L
151.366 94.33 L
152.812 89.425 L
154.258 85.512 L
155.704 82.607 L
157.15 80.722 L
158.596 79.864 L
160.042 80.036 L
161.488 81.238 L
162.934 83.465 L
164.38 86.709 L
165.826 90.955 L
167.272 96.188 L
168.718 102.386 L
170.164 109.524 L
171.61 117.575 L
173.056 126.505 L
174.502 136.279 L
175.948 146.858 L
177.394 158.199 L
178.84 170.258 L
180.286 182.985 L
181.732 196.331 L
183.178 210.242 L
184.624 224.661 L
186.07 239.532 L
187.516 254.794 L
188.962 270.388 L
190.408 286.25 L
191.854 302.317 L
193.3 318.524 L
194.746 334.808 L
196.192 351.102 L
197.638 367.342 L
199.084 383.463 L
200.53 399.399 L
201.976 415.088 L
203.422 430.467 L
204.868 445.474 L
206.314 460.049 L
207.76 474.134 L
209.206 487.672 L
210.652 500.61 L
212.098 512.895 L
213.544 524.478 L
214.99 535.314 L
216.436 545.358 L
217.882 554.571 L
219.328 562.916 L
220.774 570.359 L
222.22 576.87 L
223.666 582.424 L
225.112 586.999 L
226.558 590.575 L
228.004 593.139 L
229.45 594.681 L
230.896 595.194 L
232.342 594.676 L
233.788 593.129 L
235.234 590.56 L
236.68 586.978 L
238.126 582.399 L
239.572 576.84 L
241.018 570.324 L
242.464 562.876 L
243.91 554.527 L
245.356 545.31 L
246.802 535.261 L
248.248 524.422 L
249.694 512.835 L
251.14 500.546 L
252.586 487.605 L
254.032 474.064 L
255.478 459.977 L
256.924 445.4 L
258.37 430.391 L
259.816 415.01 L
261.262 399.32 L
262.708 383.382 L
264.154 367.261 L
265.6 351.02 L
267.046 334.726 L
268.492 318.443 L
269.938 302.236 L
271.384 286.17 L
272.83 270.309 L
274.276 254.717 L
275.722 239.456 L
277.168 224.587 L
278.614 210.17 L
280.06 196.263 L
281.506 182.92 L
282.952 170.196 L
284.398 158.14 L
285.844 146.803 L
287.29 136.228 L
288.736 126.458 L
290.182 117.532 L
291.628 109.486 L
293.074 102.352 L
294.52 96.159 L
295.966 90.931 L
297.412 86.69 L
298.858 83.452 L
300.304 81.229 L
301.75 80.032 L
303.196 79.865 L
304.642 80.729 L
306.088 82.619 L
307.534 85.529 L
308.98 89.447 L
310.426 94.357 L
311.872 100.24 L
313.318 107.071 L
314.764 114.825 L
316.21 123.469 L
317.656 132.969 L
319.102 143.287 L
320.548 154.383 L
321.994 166.21 L
323.44 178.723 L
324.886 191.871 L
326.332 205.602 L
327.778 219.86 L
329.224 234.588 L
330.67 249.729 L
332.116 265.22 L
333.562 281 L
335.008 297.007 L
336.454 313.175 L
337.9 329.441 L
339.346 345.739 L
340.792 362.004 L
342.238 378.171 L
343.684 394.175 L
345.13 409.953 L
346.576 425.441 L
348.022 440.577 L
349.468 455.3 L
350.914 469.553 L
352.36 483.277 L
353.806 496.418 L
355.252 508.924 L
356.698 520.744 L
358.144 531.831 L
359.59 542.14 L
361.036 551.631 L
362.482 560.266 L
363.928 568.009 L
365.374 574.83 L
366.82 580.703 L
368.266 585.602 L
369.712 589.509 L
371.158 592.407 L
372.604 594.286 L
374.05 595.138 L
375.496 594.96 L
376.942 593.752 L
378.388 591.518 L
379.834 588.269 L
381.28 584.016 L
382.726 578.778 L
384.172 572.574 L
385.618 565.43 L
387.064 557.374 L
388.51 548.439 L
389.956 538.66 L
391.402 528.076 L
392.848 516.73 L
394.294 504.668 L
395.74 491.936 L
397.186 478.587 L
398.632 464.673 L
400.078 450.251 L
401.524 435.378 L
402.97 420.113 L
404.416 404.517 L
405.862 388.654 L
407.308 372.586 L
408.754 356.378 L
410.2 340.094 L
411.646 323.8 L
413.092 307.561 L
414.538 291.441 L
415.984 275.505 L
417.43 259.818 L
418.876 244.441 L
420.322 229.437 L
421.768 214.865 L
423.214 200.783 L
424.66 187.248 L
426.106 174.315 L
427.552 162.033 L
428.998 150.454 L
430.444 139.623 L
431.89 129.584 L
433.336 120.376 L
434.782 112.037 L
436.228 104.599 L
437.674 98.093 L
439.12 92.545 L
440.566 87.977 L
442.012 84.406 L
443.458 81.848 L
444.904 80.313 L
446.35 79.806 L
447.796 80.331 L
449.242 81.884 L
450.688 84.459 L
452.134 88.046 L
453.58 92.632 L
455.026 98.196 L
456.472 104.718 L
457.918 112.171 L
459.364 120.526 L
460.81 129.748 L
462.256 139.802 L
463.702 150.646 L
465.148 162.237 L
466.594 174.53 L
468.04 187.474 L
469.486 201.019 L
470.932 215.109 L
472.378 229.689 L
473.824 244.701 L
475.27 260.083 L
476.716 275.775 L
478.162 291.714 L
479.608 307.837 L
481.054 324.078 L
482.5 340.372 L
483.946 356.655 L
485.392 372.862 L
486.838 388.927 L
488.284 404.786 L
489.73 420.376 L
491.176 435.635 L
492.622 450.501 L
494.068 464.915 L
495.514 478.819 L
496.96 492.159 L
498.406 504.879 L
499.852 516.93 L
501.298 528.263 L
502.744 538.834 L
504.19 548.598 L
505.636 557.519 L
507.082 565.559 L
508.528 572.688 L
509.974 578.875 L
511.42 584.097 L
512.866 588.333 L
514.312 591.565 L
515.758 593.781 L
517.204 594.972 L
518.65 595.133 L
520.096 594.263 L
521.542 592.366 L
522.988 589.45 L
524.434 585.526 L
525.88 580.61 L
527.326 574.722 L
528.772 567.885 L
530.218 560.126 L
531.664 551.476 L
533.11 541.971 L
534.556 531.648 L
536.002 520.548 L
537.448 508.716 L
538.894 496.2 L
540.34 483.048 L
541.786 469.314 L
543.232 455.053 L
544.678 440.322 L
546.124 425.179 L
547.57 409.686 L
549.016 393.904 L
550.462 377.896 L
551.908 361.727 L
553.354 345.461 L
554.8 329.163 L
556.246 312.898 L
557.692 296.732 L
559.138 280.729 L
560.584 264.953 L
562.03 249.467 L
563.476 234.333 L
564.922 219.612 L
566.368 205.363 L
567.814 191.642 L
569.26 178.504 L
570.706 166.003 L
572.152 154.187 L
573.598 143.105 L
575.044 132.8 L
576.49 123.314 L
577.936 114.685 L
579.382 106.947 L
580.828 100.131 L
582.274 94.265 L
583.72 89.372 L
585.166 85.471 L
586.612 82.578 L
588.058 80.705 L
589.504 79.859 L
590.95 80.044 L
592.396 81.259 L
593.842 83.498 L
595.288 86.754 L
596.734 91.012 L
598.18 96.257 L
599.626 102.466 L
601.072 109.616 L
602.518 117.677 L
603.964 126.617 L
605.41 136.401 L
606.856 146.99 L
608.302 158.34 L
609.748 170.407 L
611.194 183.143 L
612.64 196.495 L
614.086 210.412 L
615.532 224.837 L
616.978 239.713 L
618.424 254.98 L
619.87 270.577 L
621.316 286.442 L
622.762 302.511 L
624.208 318.72 L
625.654 335.004 L
627.1 351.298 L
628.546 367.537 L
629.992 383.656 L
631.438 399.59 L
632.884 415.275 L
634.33 430.65 L
635.776 445.652 L
637.222 460.222 L
638.668 474.3 L
640.114 487.831 L
641.56 500.761 L
643.006 513.038 L
644.452 524.613 L
645.898 535.44 L
647.344 545.474 L
648.79 554.677 L
650.236 563.011 L
651.682 570.443 L
653.128 576.943 L
654.574 582.485 L
656.02 587.048 L
657.466 590.612 L
658.912 593.164 L
660.358 594.693 L
661.804 595.193 L
663.25 594.663 L
664.696 593.104 L
666.142 590.523 L
667.588 586.929 L
669.034 582.338 L
670.48 576.767 L
671.926 570.24 L
673.372 562.781 L
674.818 554.421 L
676.264 545.194 L
677.71 535.135 L
679.156 524.287 L
680.602 512.691 L
682.048 500.394 L
683.494 487.446 L
684.94 473.898 L
686.386 459.804 L
687.832 445.221 L
689.278 430.208 L
690.724 414.823 L
692.17 399.129 L
693.616 383.189 L
695.062 367.066 L
696.508 350.824 L
697.954 334.53 L
699.4 318.247 L
700.846 302.041 L
702.292 285.977 L
703.738 270.119 L
705.184 254.531 L
706.63 239.275 L
708.076 224.411 L
709.522 210 L
710.968 196.099 L
712.414 182.763 L
713.86 170.046 L
715.306 158 L
716.752 146.671 L
718.198 136.105 L
719.644 126.345 L
721.09 117.43 L
722.536 109.395 L
723.982 102.272 L
725.428 96.091 L
726.874 90.875 L
728.32 86.645 L
729.766 83.419 L
731.212 81.209 L
732.658 80.024 L
734.104 79.87 L
735.55 80.745 L
736.996 82.648 L
738.442 85.57 L
739.888 89.5 L
741.334 94.422 L
742.78 100.316 L
744.226 107.159 L
745.672 114.924 L
747.118 123.578 L
748.564 133.089 L
750.01 143.417 L
751.456 154.521 L
752.902 166.357 L
754.348 178.878 L
755.794 192.033 L
757.24 205.77 L
758.686 220.034 L
760.132 234.768 L
761.578 249.913 L
763.024 265.408 L
764.47 281.192 L
765.916 297.201 L
767.362 313.371 L
768.808 329.637 L
770.254 345.935 L
771.7 362.199 L
773.146 378.365 L
774.592 394.367 L
776.038 410.141 L
777.484 425.625 L
778.93 440.757 L
780.376 455.475 L
781.822 469.721 L
783.268 483.439 L
784.714 496.573 L
786.16 509.07 L
787.606 520.882 L
789.052 531.96 L
790.498 542.259 L
791.944 551.74 L
793.39 560.364 L
794.836 568.097 L
796.282 574.907 L
797.728 580.767 L
799.174 585.655 L
800.62 589.549 L
802.066 592.436 L
803.512 594.303 L
804.958 595.142 L
806.404 594.952 L
807.85 593.731 L
809.296 591.485 L
810.742 588.223 L
812.188 583.959 L
813.634 578.709 L
815.08 572.493 L
816.526 565.338 L
817.972 557.272 L
819.418 548.326 L
820.864 538.537 L
822.31 527.944 L
823.756 516.589 L
825.202 504.518 L
826.648 491.779 L
828.094 478.422 L
829.54 464.502 L
830.986 450.074 L
832.432 435.196 L
833.878 419.927 L
835.324 404.328 L
836.77 388.462 L
838.216 372.392 L
839.662 356.182 L
841.108 339.898 L
842.554 323.604 L
844 307.366 L
844.086 306.405 L
S
GR
%%Trailer
%%Pages: 1
%%EOF
