\relax 
\@writefile{toc}{\contentsline {section}{\numberline {1}Exercise 1}{1}{}\protected@file@percent }
\@writefile{toc}{\contentsline {section}{\numberline {2}Exercise 2}{1}{}\protected@file@percent }
\@writefile{toc}{\contentsline {section}{\numberline {3}Exercise 3}{2}{}\protected@file@percent }
\@writefile{toc}{\contentsline {section}{\numberline {4}Exercise 4}{2}{}\protected@file@percent }
\@writefile{toc}{\contentsline {section}{\numberline {5}Exercise 5}{3}{}\protected@file@percent }
\@writefile{toc}{\contentsline {section}{\numberline {6}Exercise 6}{3}{}\protected@file@percent }
\gdef\minted@oldcachelist{,
  default-pyg-prefix.pygstyle,
  default.pygstyle,
  2E43FD15F8C64A271381BFB6080AD368EBADE4AA3802024A1EC5EE26FAACF640.pygtex,
  A4BAD8DF5259D4C0E75670EDA908A308BDD42A4B1EC781481CD2EBBF7531237C.pygtex,
  BF9AB53016AEF2C9CB64EFE7676E2171AA5661C716B892962D208CEA8504F81A.pygtex}
\@writefile{toc}{\contentsline {section}{\numberline {7}Exercise 7}{4}{}\protected@file@percent }
\gdef \@abspage@last{4}
