\relax 
\@writefile{toc}{\contentsline {section}{\numberline {1}Exercises 1 + 2}{1}{}\protected@file@percent }
\newlabel{fig:1}{{1}{1}}
\@writefile{toc}{\contentsline {section}{\numberline {2}Exercise 3}{2}{}\protected@file@percent }
\@writefile{toc}{\contentsline {section}{\numberline {3}Exercise 4}{2}{}\protected@file@percent }
\@writefile{toc}{\contentsline {section}{\numberline {4}Exercise 5}{3}{}\protected@file@percent }
\@writefile{toc}{\contentsline {section}{\numberline {5}Exercise 6}{3}{}\protected@file@percent }
\@writefile{toc}{\contentsline {section}{\numberline {6}Exercise 7}{4}{}\protected@file@percent }
\@writefile{toc}{\contentsline {section}{\numberline {7}Exercise 8}{4}{}\protected@file@percent }
\@writefile{toc}{\contentsline {section}{\numberline {8}Exercise 9}{4}{}\protected@file@percent }
\gdef\minted@oldcachelist{,
  default-pyg-prefix.pygstyle,
  default.pygstyle,
  A8CEFD5C16DB5D96033067ADE931259E3807C1E26346F50C1FEAF7C6215BDB54.pygtex,
  017C74F23D4E81DEA3B684BAE11DC16B3807C1E26346F50C1FEAF7C6215BDB54.pygtex}
\@writefile{toc}{\contentsline {section}{\numberline {9}Exercise 10}{5}{}\protected@file@percent }
\@writefile{toc}{\contentsline {section}{\numberline {10}Exercise 11}{5}{}\protected@file@percent }
\gdef \@abspage@last{5}
