\relax 
\@writefile{toc}{\contentsline {section}{\numberline {10}Homework 10 Left-Overs}{1}{}\protected@file@percent }
\@writefile{toc}{\contentsline {subsection}{\numberline {10.8}Exercise 8}{1}{}\protected@file@percent }
\@writefile{toc}{\contentsline {subsection}{\numberline {10.9}Exercise 9}{1}{}\protected@file@percent }
\@writefile{toc}{\contentsline {subsection}{\numberline {10.10}Exercise 10}{2}{}\protected@file@percent }
\@writefile{toc}{\contentsline {section}{\numberline {11}Homework 11 Problems}{2}{}\protected@file@percent }
\@writefile{toc}{\contentsline {subsection}{\numberline {11.1}Exercise 1}{2}{}\protected@file@percent }
\@writefile{toc}{\contentsline {subsection}{\numberline {11.2}Exercise 2}{3}{}\protected@file@percent }
\@writefile{toc}{\contentsline {subsection}{\numberline {11.3}Exercise 3}{3}{}\protected@file@percent }
\@writefile{toc}{\contentsline {subsection}{\numberline {11.4}Exercise 4}{4}{}\protected@file@percent }
\@writefile{toc}{\contentsline {subsection}{\numberline {11.5}Exercise 5}{5}{}\protected@file@percent }
\@writefile{toc}{\contentsline {subsection}{\numberline {11.6}Exercise 6}{5}{}\protected@file@percent }
\@writefile{toc}{\contentsline {subsection}{\numberline {11.7}Exercise 7}{6}{}\protected@file@percent }
\gdef\minted@oldcachelist{,
  default-pyg-prefix.pygstyle,
  default.pygstyle,
  FE699C54E53F6E1ECA2C89C081CA5443A84E531F91FC174EEBFA088BEE5603A9.pygtex,
  ED4F18F88CD1D960068D9E923C4B8DD71EBB29B7B3C4C3C2F228F71F0C630CF0.pygtex,
  6FFB63FBE291A5D4E7CD1D356AD20901A1B7D20F6CE8A4461DA75E902BD5E457.pygtex,
  E199B5BDAF86C106124D5063D90F73FC88BF413A2CA62369BC24D083EACD7F7C.pygtex,
  D5E9A59A6939CE2038D76605425BCAD85219D327EA4D459B0A04C9FEC3433D3B.pygtex}
\gdef \@abspage@last{8}
