\relax 
\@writefile{toc}{\contentsline {section}{\numberline {1}Exercise 1}{1}{}\protected@file@percent }
\gdef\minted@oldcachelist{,
  default-pyg-prefix.pygstyle,
  default.pygstyle,
  0C105B8F05457B239A8F3980BFF4ECE600708FB11B2F6747E1FEC17F99D1EEDA.pygtex,
  D8E8FCA2DC0F896FD7CB4CB0031BA2493E442D12BFFC52B09B5879F2BA56C9BD.pygtex,
  126A8A51B9D1BBD07FDDC65819A542C37EC9EDD7EE919D57AB9089E25CD9BA95.pygtex}
\@writefile{toc}{\contentsline {section}{\numberline {2}Exercise 2}{2}{}\protected@file@percent }
\@writefile{toc}{\contentsline {section}{\numberline {3}Exercise 3}{2}{}\protected@file@percent }
\@writefile{toc}{\contentsline {section}{\numberline {4}Exercise 4}{2}{}\protected@file@percent }
\gdef \@abspage@last{2}
